<svg width="30" height="8" viewBox="0 0 30 8" fill="none" xmlns="http://www.w3.org/2000/svg">
<path d="M3.38578 0L0 7.99168H4.05279L4.55597 6.71867H5.70277L6.20595 7.99168H10.6683V7.0182L11.0662 7.99168H13.3754L13.7732 6.9974V7.99168H23.049L24.1763 6.75195L25.2334 7.99168L30 8L26.6025 4.01872L29.9961 0H25.3075L24.2075 1.21893L23.1855 0H13.0906L12.2247 2.06344L11.3392 0H7.29424V0.940198L6.84176 0H3.38578ZM4.16981 1.13573H6.14354L8.39033 6.55226V1.13573H10.5552L12.291 5.02132L13.8903 1.13573H16.0434V6.86843H14.7328L14.7211 2.37545L12.8098 6.86843H11.6396L9.72045 2.37545V6.86843H7.02119L6.51021 5.58294H3.74854L3.23755 6.86843H1.7943L4.16981 1.13573ZM17.2409 1.13573H22.5692L24.1997 3.01196L25.8809 1.13573H27.5114L25.0345 4.01872L27.5114 6.86843H25.8068L24.1763 4.9714L22.4873 6.86843H17.2409V1.13573ZM5.12937 2.10504L4.22052 4.39314H6.03823L5.12937 2.10504ZM18.5555 2.32137V3.36974H21.4614V4.53458H18.5555V5.67863H21.8164L23.3299 3.99376L21.8788 2.32137H18.5555Z" fill="white"/>
</svg>
