<svg width="21" height="20" viewBox="0 0 21 20" fill="none" xmlns="http://www.w3.org/2000/svg">
<path d="M18.4245 5H15.0566V4.6C15.0566 2.06 13.016 0 10.5 0C7.98396 0 5.9434 2.06 5.9434 4.6V5H2.57547C2.13715 5 1.78302 5.3575 1.78302 5.8L0 19.2C0 19.6425 0.354127 20 0.792453 20H20.2075C20.6459 20 21 19.6425 21 19.2L19.217 5.8C19.217 5.3575 18.8629 5 18.4245 5ZM7.72641 4.6C7.72641 3.0525 8.9671 1.8 10.5 1.8C12.0329 1.8 13.2736 3.0525 13.2736 4.6V5H7.72641V4.6ZM19.217 18.2H1.78302L3.56604 6.8H5.9434V9C5.9434 9.11 6.03255 9.2 6.14151 9.2H7.5283C7.63726 9.2 7.72641 9.11 7.72641 9V6.8H13.2736V9C13.2736 9.11 13.3627 9.2 13.4717 9.2H14.8585C14.9675 9.2 15.0566 9.11 15.0566 9V6.8H17.434L19.217 18.2Z" fill="white"/>
</svg>
