<svg width="30" height="18" viewBox="0 0 30 18" fill="none" xmlns="http://www.w3.org/2000/svg">
<path d="M16.4967 12.2098C19.8353 12.2272 22.8812 9.48725 22.8812 6.15732C22.8812 2.51712 19.8353 0 16.4967 0H13.6256C10.2476 0 7.46826 2.51712 7.46826 6.15732C7.46826 9.48725 10.2476 12.2229 13.6256 12.2098H16.4967Z" fill="#555555"/>
<path d="M14.9061 9.39977V2.78797C16.2346 3.29926 17.1785 4.58404 17.1828 6.09606C17.1785 7.6037 16.2346 8.88848 14.9061 9.39977ZM10.0991 6.09169C10.1035 4.58404 11.043 3.29926 12.3715 2.78797V9.39977C11.043 8.88848 10.0991 7.6037 10.0991 6.09169ZM13.6388 0.506836C10.5536 0.506836 8.05393 3.01084 8.04956 6.09606C8.04956 9.18127 10.5492 11.6809 13.6388 11.6853C16.724 11.6853 19.228 9.18564 19.228 6.09606C19.228 3.00647 16.724 0.506836 13.6388 0.506836Z" fill="white"/>
<path d="M1.2236 16.3745C1.2236 16.8727 1.57757 16.9295 1.89658 16.9295C3.2906 16.9295 3.74945 15.8763 3.74945 14.9149C3.74945 13.7088 2.97597 12.8392 1.73052 12.8392C1.46395 12.8392 1.34159 12.8566 1.22797 12.8654L1.2236 16.3745ZM0.594319 13.3461C0.594319 12.7649 0.29279 12.8042 0 12.7998V12.6294C0.25346 12.6425 0.511289 12.6425 0.760379 12.6425C1.03132 12.6425 1.3984 12.6294 1.8791 12.6294C3.54843 12.6294 4.46176 13.7437 4.46176 14.8887C4.46176 15.5267 4.08594 17.1349 1.80044 17.1349C1.47269 17.1349 1.16679 17.1217 0.865259 17.1217C0.576839 17.1217 0.29279 17.1261 0 17.1349V16.9688C0.388929 16.9295 0.572469 16.9164 0.594319 16.4794V13.3461Z" fill="white"/>
<path d="M5.37503 13.1932C5.20897 13.1932 5.06039 13.0403 5.06039 12.8698C5.06039 12.7082 5.21771 12.5596 5.37503 12.5596C5.54109 12.5596 5.68967 12.695 5.68967 12.8698C5.69404 13.0446 5.54983 13.1932 5.37503 13.1932ZM4.68457 16.9689H4.80693C4.9861 16.9689 5.1172 16.9689 5.1172 16.7548V15.0068C5.1172 14.7227 5.02106 14.6834 4.78071 14.5567V14.4518C5.08224 14.36 5.44495 14.2376 5.47117 14.2202C5.51487 14.1939 5.5542 14.1896 5.58916 14.1896C5.61975 14.1896 5.63286 14.2289 5.63286 14.2813V16.7591C5.63286 16.9733 5.7727 16.9733 5.95624 16.9733H6.06549V17.1393C5.84699 17.1393 5.61975 17.1262 5.38814 17.1262C5.15653 17.1262 4.92492 17.1306 4.68457 17.1393V16.9689Z" fill="white"/>
<path d="M6.68173 15.046C6.68173 14.8056 6.61181 14.7444 6.30591 14.6221V14.4997C6.58122 14.408 6.84779 14.3249 7.15806 14.1895C7.17554 14.1895 7.19739 14.2026 7.19739 14.255V14.6745C7.56446 14.4123 7.88347 14.1895 8.3161 14.1895C8.86235 14.1895 9.059 14.5915 9.059 15.094V16.759C9.059 16.9731 9.19884 16.9731 9.38238 16.9731H9.50037V17.1392C9.27313 17.1392 9.05026 17.1261 8.81428 17.1261C8.58267 17.1261 8.35106 17.1305 8.11508 17.1392V16.9731H8.23307C8.41224 16.9731 8.54334 16.9731 8.54334 16.759V15.0897C8.54334 14.7226 8.32047 14.5391 7.94902 14.5391C7.74363 14.5391 7.41151 14.7051 7.20176 14.8493V16.759C7.20176 16.9731 7.34596 16.9731 7.52513 16.9731H7.64312V17.1392C7.41588 17.1392 7.19302 17.1261 6.95704 17.1261C6.72543 17.1261 6.49382 17.1305 6.26221 17.1392V16.9731H6.3802C6.55937 16.9731 6.69047 16.9731 6.69047 16.759L6.68173 15.046Z" fill="white"/>
<path d="M11.1261 15.1465C11.2878 15.1465 11.3052 15.0635 11.3052 14.9848C11.3052 14.657 11.1042 14.3905 10.7459 14.3905C10.3526 14.3905 10.0816 14.6789 10.003 15.1465H11.1261ZM9.98551 15.3562C9.9724 15.4131 9.9724 15.5092 9.98551 15.7321C10.0248 16.3439 10.4181 16.8464 10.9338 16.8464C11.2878 16.8464 11.5674 16.6541 11.8034 16.4138L11.8952 16.5055C11.598 16.8988 11.231 17.2353 10.7022 17.2353C9.67524 17.2353 9.46985 16.239 9.46985 15.8282C9.46985 14.5609 10.322 14.1895 10.7721 14.1895C11.2965 14.1895 11.8559 14.5172 11.8646 15.2033C11.8646 15.2426 11.8646 15.282 11.8602 15.3213L11.7991 15.3562H9.98551Z" fill="white"/>
<path d="M12.0132 16.9688H12.188C12.3671 16.9688 12.4982 16.9688 12.4982 16.7546V14.9411C12.4982 14.7401 12.2579 14.7007 12.1617 14.6527V14.5565C12.6337 14.3555 12.8915 14.1895 12.9483 14.1895C12.9877 14.1895 13.0051 14.2069 13.0051 14.2725V14.8537H13.0183C13.1799 14.6002 13.4509 14.1895 13.8442 14.1895C14.0059 14.1895 14.2113 14.2987 14.2113 14.5303C14.2113 14.7051 14.0889 14.8581 13.9097 14.8581C13.7087 14.8581 13.7087 14.7007 13.4815 14.7007C13.3722 14.7007 13.0095 14.8493 13.0095 15.2383V16.7546C13.0095 16.9688 13.1362 16.9688 13.3198 16.9688H13.6825V17.1348C13.3285 17.1261 13.0576 17.1217 12.7779 17.1217C12.5113 17.1217 12.2404 17.1261 12.0088 17.1348L12.0132 16.9688Z" fill="white"/>
<path d="M14.4953 16.239C14.5783 16.6628 14.8362 17.0256 15.3081 17.0256C15.6883 17.0256 15.8282 16.7939 15.8282 16.5667C15.8282 15.8063 14.421 16.051 14.421 15.011C14.421 14.6483 14.7138 14.1851 15.4217 14.1851C15.6271 14.1851 15.9068 14.2419 16.1559 14.373L16.1996 15.0328H16.051C15.9855 14.6264 15.7626 14.3948 15.3475 14.3948C15.0896 14.3948 14.8449 14.5434 14.8449 14.8187C14.8449 15.5747 16.3438 15.3431 16.3438 16.3526C16.3438 16.7765 16.003 17.2309 15.2338 17.2309C14.976 17.2309 14.6745 17.1392 14.4472 17.0124L14.3773 16.2695L14.4953 16.239Z" fill="white"/>
<path d="M22.1778 13.8005H22.0161C21.8937 13.0445 21.3562 12.743 20.6352 12.743C19.8923 12.743 18.8129 13.2412 18.8129 14.7881C18.8129 16.0904 19.7437 17.03 20.7357 17.03C21.3737 17.03 21.9025 16.593 22.0336 15.9112L22.1821 15.9506L22.0336 16.8945C21.7626 17.0649 21.0328 17.2353 20.6046 17.2353C19.0926 17.2353 18.1399 16.2608 18.1399 14.81C18.1399 13.4859 19.3198 12.5376 20.5871 12.5376C21.1115 12.5376 21.614 12.708 22.1122 12.8785L22.1778 13.8005Z" fill="white"/>
<path d="M22.4093 16.9688H22.5317C22.7108 16.9688 22.8419 16.9688 22.8419 16.7547V13.1582C22.8419 12.7387 22.7458 12.7256 22.5011 12.6557V12.5508C22.7589 12.4677 23.0298 12.3498 23.1653 12.2711C23.2352 12.2318 23.2877 12.2012 23.3052 12.2012C23.3445 12.2012 23.3576 12.2405 23.3576 12.2929V16.7503C23.3576 16.9645 23.4974 16.9645 23.681 16.9645H23.7902V17.1305C23.5717 17.1305 23.3445 17.1174 23.1129 17.1174C22.8813 17.1174 22.6497 17.1218 22.4093 17.1305V16.9688Z" fill="white"/>
<path d="M26.552 16.7809C26.552 16.8989 26.6219 16.9033 26.7312 16.9033C26.8098 16.9033 26.906 16.8989 26.989 16.8989V17.0344C26.7093 17.0606 26.1805 17.1961 26.0582 17.2354L26.0276 17.2179V16.6935C25.6387 17.0082 25.3415 17.2354 24.8827 17.2354C24.5331 17.2354 24.1747 17.0082 24.1747 16.4663V14.8144C24.1747 14.6484 24.1485 14.4867 23.7902 14.4517V14.3293C24.0218 14.325 24.5374 14.2856 24.6205 14.2856C24.6904 14.2856 24.6904 14.3293 24.6904 14.4736V16.1385C24.6904 16.3308 24.6904 16.8858 25.2497 16.8858C25.4682 16.8858 25.761 16.7197 26.032 16.4925V14.7576C26.032 14.6309 25.7217 14.5566 25.4901 14.4954V14.3774C26.0713 14.3381 26.434 14.2856 26.4952 14.2856C26.5476 14.2856 26.5476 14.3293 26.5476 14.4036L26.552 16.7809Z" fill="white"/>
<path d="M27.8369 16.4051C27.8369 16.6498 28.0685 17.065 28.5011 17.065C29.1916 17.065 29.48 16.3876 29.48 15.8108C29.48 15.116 28.9512 14.5348 28.4487 14.5348C28.2083 14.5348 28.0073 14.6921 27.8369 14.8363V16.4051ZM27.8369 14.6528C28.0947 14.4343 28.4443 14.1895 28.7983 14.1895C29.5456 14.1895 30 14.8407 30 15.5442C30 16.3876 29.3795 17.2354 28.4574 17.2354C27.9811 17.2354 27.7276 17.0825 27.5616 17.0082L27.3693 17.1568L27.2338 17.0868C27.2906 16.7067 27.3256 16.3308 27.3256 15.9375V13.1626C27.3256 12.7431 27.2295 12.73 26.9847 12.66V12.5552C27.2426 12.4721 27.5135 12.3541 27.649 12.2755C27.7189 12.2362 27.7713 12.2056 27.7932 12.2056C27.8325 12.2056 27.8456 12.2449 27.8456 12.2973L27.8369 14.6528Z" fill="white"/>
</svg>
