<svg width="30" height="10" viewBox="0 0 30 10" fill="none" xmlns="http://www.w3.org/2000/svg">
<path d="M21.8164 0.406435C21.3394 0.211685 20.5843 0 19.6423 0C17.2456 0 15.5564 1.31245 15.5445 3.19644C15.5326 4.58933 16.7488 5.3641 17.6709 5.82981C18.6168 6.30398 18.9308 6.60881 18.9269 7.03218C18.9229 7.67993 18.1717 7.97629 17.4761 7.97629C16.5063 7.97629 15.9897 7.82811 15.1947 7.46825L14.8808 7.31583L14.5389 9.48349C15.1073 9.75445 16.1526 9.9873 17.2416 10C19.7933 10 21.4467 8.70025 21.4666 6.68925C21.4746 5.58848 20.8307 4.75021 19.4316 4.05588C18.585 3.60711 18.0644 3.31075 18.0684 2.85351C18.0684 2.45131 18.5095 2.01947 19.4594 2.01947C20.2544 2.00677 20.8267 2.19306 21.2758 2.39204L21.4944 2.50212L21.8164 0.406435Z" fill="white"/>
<path d="M28.0365 0.177734H26.1605C25.5802 0.177734 25.147 0.351316 24.8887 0.982137L21.2877 9.86021H23.8354C23.8354 9.86021 24.2527 8.6663 24.3442 8.40381C24.6224 8.40381 27.0985 8.40805 27.4523 8.40805C27.5238 8.74674 27.7464 9.86021 27.7464 9.86021H29.996L28.0365 0.177734ZM25.0477 6.42244C25.2464 5.86359 26.0135 3.71287 26.0135 3.71287C25.9976 3.73828 26.2122 3.15403 26.3354 2.78993L26.4984 3.62397C26.4984 3.62397 26.9634 5.93557 27.0588 6.42244H25.0477Z" fill="white"/>
<path d="M10.5962 9.85614L12.1105 0.169434H14.535L13.0167 9.85614H10.5962Z" fill="white"/>
<path d="M8.5612 0.173667L6.18441 6.77824L5.93004 5.43616C5.48886 3.89086 4.10969 2.21431 2.57153 1.3718L4.74164 9.84344L7.30921 9.8392L11.1288 0.169434H8.5612" fill="white"/>
<path d="M3.93879 0.152344L0.0278219 0.224317L0 0.427534C3.05644 1.16843 5.10334 3.06936 5.97774 5.38096L5.05167 0.948279C4.89269 0.334393 4.46343 0.160811 3.93879 0.152344Z" fill="#D2D2D2"/>
</svg>
